[
  {
    "area": "UrbanCity",
    "prefix": "run-9-8-urbancity",
    "run_num": 3,
    "threshold": 0.001521
  },
  {
    "area": "UrbanCity",
    "prefix": "run-9-8-urbancity",
    "run_num": 5,
    "threshold": 0.001521
  },
  {
    "area": "UrbanCity",
    "prefix": "run-9-8-urbancity",
    "run_num": 7,
    "threshold": 0.001521
  },
  {
    "area": "UrbanCity",
    "prefix": "run-9-8-urbancity",
    "run_num": 10,
    "threshold": 0.001521
  }
]

